Nombre del Archivo;Tipo de Operación;Resultado Esperado;Resultado Obtenido;¿Excepcion?
compliantFrontEnd;Compliance;true;false;false

newCompliantIntervaloDisminuido;Compliance;true;true;false

Offer-con-GT-no-referenciadoTemplate(5);Compliance;true;true;false

Offer-con-OR-correcto(2GT)(4);Compliance;true;true;false

Offer-con-OR-correcto(3);Compliance;true;true;false

vble-Offer-cumpleRestriccion-Constraint(2);Compliance;true;true;false

vble-Offer-dentroIntervalo-Item(1);Compliance;true;true;false

xor-valido;Compliance;true;true;false

