Nombre del Archivo;Tipo de Operación;Resultado Esperado;Resultado Obtenido;¿Excepcion?;Terms;Explaining
Dead Term intrinseco.wsag;Dead terms;true;true;false;GuaranteeTerm1,;"GuaranteeTerm1 => GuaranteeTerm1,;"

Dead Term Xor.wsag;Dead terms;true;true;false;GuaranteeTerm2,;"GuaranteeTerm2 => ComputingServiceSDT,;"

DeadTerm(GT1-GT1).wsag;Dead terms;true;true;false;SDT1,GuaranteeTerm1,;"GuaranteeTerm1 => GuaranteeTerm1,;"

DeadTerm(Xor).wsag;Dead terms;true;true;false;SDT1,GuaranteeTerm1,GuaranteeTerm2,;"GuaranteeTerm2 => SDT1,;"

Warning QC CC.wsag;Dead terms;true;true;false;GuaranteeTerm1,;"GuaranteeTerm1 => Constraint1,;"

Warning QC SDT.wsag;Dead terms;true;true;false;GuaranteeTerm1,;"GuaranteeTerm1 => ComputingServiceSDT,;"

Warning(QC-CC).wsag;Dead terms;true;true;false;GuaranteeTerm1,;"GuaranteeTerm1 => Constraint1,;"

Warning(QC-SDT).wsag;Dead terms;true;true;false;SDT1,GuaranteeTerm1,;"GuaranteeTerm1 => SDT1,;"

